[
  {
    "id": 0,
    "distanciaPeligro": 10,
    "distanciaPrecaucion": 20,
    "agresor": {
      "dni": "1",
      "idDispositivo": "1",
      "nombre": "Jose"
    },
    "agredido": {
      "dni": "2",
      "idDispositivo": "2",
      "nombre": "Pedro"
    }
  },
  {
    "id": 0,
    "distanciaPeligro": 10,
    "distanciaPrecaucion": 20,
    "agresor": {
      "dni": "2",
      "idDispositivo": "2",
      "nombre": "Pedro"
    },
    "agredido": {
      "dni": "3",
      "idDispositivo": "3",
      "nombre": "Marta"
    }
  },
  {
    "id": 0,
    "distanciaPeligro": 10,
    "distanciaPrecaucion": 40,
    "agresor": {
      "dni": "1",
      "idDispositivo": "1",
      "nombre": "Jose"
    },
    "agredido": {
      "dni": "3",
      "idDispositivo": "3",
      "nombre": "Marta"
    }
  }
]